-- Merging decision tree log ---
manifest
ADDED from D:\android example\Vat Calculator\vat-calculator\app\src\main\AndroidManifest.xml:2:1-29:12
	package
		ADDED from D:\android example\Vat Calculator\vat-calculator\app\src\main\AndroidManifest.xml:3:5-34
		INJECTED from D:\android example\Vat Calculator\vat-calculator\app\src\main\AndroidManifest.xml
		INJECTED from D:\android example\Vat Calculator\vat-calculator\app\src\main\AndroidManifest.xml
	android:versionName
		INJECTED from D:\android example\Vat Calculator\vat-calculator\app\src\main\AndroidManifest.xml
		INJECTED from D:\android example\Vat Calculator\vat-calculator\app\src\main\AndroidManifest.xml
	xmlns:android
		ADDED from D:\android example\Vat Calculator\vat-calculator\app\src\main\AndroidManifest.xml:2:11-69
	android:versionCode
		INJECTED from D:\android example\Vat Calculator\vat-calculator\app\src\main\AndroidManifest.xml
		INJECTED from D:\android example\Vat Calculator\vat-calculator\app\src\main\AndroidManifest.xml
uses-permission#android.permission.INTERNET
ADDED from D:\android example\Vat Calculator\vat-calculator\app\src\main\AndroidManifest.xml:5:5-67
	android:name
		ADDED from D:\android example\Vat Calculator\vat-calculator\app\src\main\AndroidManifest.xml:5:22-64
application
ADDED from D:\android example\Vat Calculator\vat-calculator\app\src\main\AndroidManifest.xml:7:5-27:19
MERGED from [com.android.support:cardview-v7:25.3.1] C:\Users\Lenovo\.android\build-cache\dff5d0015620c9c785604d30abf99ccf9135cdc9\output\AndroidManifest.xml:26:5-20
MERGED from [com.android.support:design:25.3.1] C:\Users\Lenovo\.android\build-cache\9f23a8f1aadb7ccfa2b82ce899c54e7c384effeb\output\AndroidManifest.xml:29:5-20
MERGED from [com.android.support:transition:25.3.1] C:\Users\Lenovo\.android\build-cache\610015489d47b47f1a7662e85a1f7da5f31695f5\output\AndroidManifest.xml:26:5-20
MERGED from [uk.co.chrisjenx:calligraphy:2.2.0] C:\Users\Lenovo\.android\build-cache\95417d68a1500e31878e5f16ca5a5c13bf17b679\output\AndroidManifest.xml:11:5-20
MERGED from [com.android.support:appcompat-v7:25.3.1] C:\Users\Lenovo\.android\build-cache\e806d1223d4f8a0138a0f9e43bbde76c47fe09ac\output\AndroidManifest.xml:29:5-20
MERGED from [com.android.support:support-v4:25.3.1] C:\Users\Lenovo\.android\build-cache\2c0cd96ab37b4c80e093bf29fca81a616884e11d\output\AndroidManifest.xml:29:5-20
MERGED from [com.android.support:support-fragment:25.3.1] C:\Users\Lenovo\.android\build-cache\ec0a1fd78d73990676392e9fbda943c1ffa7d628\output\AndroidManifest.xml:29:5-20
MERGED from [com.android.support:support-media-compat:25.3.1] C:\Users\Lenovo\.android\build-cache\57fcd885ae391f71327788d81ca9cd40ab161e30\output\AndroidManifest.xml:29:5-20
MERGED from [com.android.support:support-core-utils:25.3.1] C:\Users\Lenovo\.android\build-cache\267486a6ff10aa4c38fe89a587edc4aa8ebee08b\output\AndroidManifest.xml:29:5-20
MERGED from [com.android.support:animated-vector-drawable:25.3.1] C:\Users\Lenovo\.android\build-cache\8a623e6583a7943d7d5200dd887ca4f35df9b57c\output\AndroidManifest.xml:26:5-20
MERGED from [com.android.support:support-vector-drawable:25.3.1] C:\Users\Lenovo\.android\build-cache\b532181c00635f8abdbe28488944b260f121fd20\output\AndroidManifest.xml:26:5-20
MERGED from [com.android.support:support-core-ui:25.3.1] C:\Users\Lenovo\.android\build-cache\72a16cfc92e51274ead5b8515f06347ccdf464a4\output\AndroidManifest.xml:29:5-20
MERGED from [com.android.support:support-compat:25.3.1] C:\Users\Lenovo\.android\build-cache\5543d7e868d7d10996d9bb1a4a5a4316f2b6384c\output\AndroidManifest.xml:29:5-20
MERGED from [com.jakewharton.timber:timber:4.5.1] C:\Users\Lenovo\.android\build-cache\7a5da45a70b6a2f499bcd861b767505f8f34e0c9\output\AndroidManifest.xml:8:5-20
	android:label
		ADDED from D:\android example\Vat Calculator\vat-calculator\app\src\main\AndroidManifest.xml:11:9-41
	android:supportsRtl
		ADDED from D:\android example\Vat Calculator\vat-calculator\app\src\main\AndroidManifest.xml:12:9-35
	android:allowBackup
		ADDED from D:\android example\Vat Calculator\vat-calculator\app\src\main\AndroidManifest.xml:9:9-35
	android:icon
		ADDED from D:\android example\Vat Calculator\vat-calculator\app\src\main\AndroidManifest.xml:10:9-43
	android:theme
		ADDED from D:\android example\Vat Calculator\vat-calculator\app\src\main\AndroidManifest.xml:13:9-40
	android:name
		ADDED from D:\android example\Vat Calculator\vat-calculator\app\src\main\AndroidManifest.xml:8:9-50
activity#lt.ito.vatconverter.ui.vat.VatActivity
ADDED from D:\android example\Vat Calculator\vat-calculator\app\src\main\AndroidManifest.xml:14:9-23:20
	android:screenOrientation
		ADDED from D:\android example\Vat Calculator\vat-calculator\app\src\main\AndroidManifest.xml:17:13-49
	android:launchMode
		ADDED from D:\android example\Vat Calculator\vat-calculator\app\src\main\AndroidManifest.xml:16:13-43
	android:theme
		ADDED from D:\android example\Vat Calculator\vat-calculator\app\src\main\AndroidManifest.xml:18:13-44
	android:name
		ADDED from D:\android example\Vat Calculator\vat-calculator\app\src\main\AndroidManifest.xml:15:13-47
intent-filter#android.intent.action.MAIN+android.intent.category.LAUNCHER
ADDED from D:\android example\Vat Calculator\vat-calculator\app\src\main\AndroidManifest.xml:19:13-22:29
action#android.intent.action.MAIN
ADDED from D:\android example\Vat Calculator\vat-calculator\app\src\main\AndroidManifest.xml:20:17-69
	android:name
		ADDED from D:\android example\Vat Calculator\vat-calculator\app\src\main\AndroidManifest.xml:20:25-66
category#android.intent.category.LAUNCHER
ADDED from D:\android example\Vat Calculator\vat-calculator\app\src\main\AndroidManifest.xml:21:17-77
	android:name
		ADDED from D:\android example\Vat Calculator\vat-calculator\app\src\main\AndroidManifest.xml:21:27-74
uses-sdk
INJECTED from D:\android example\Vat Calculator\vat-calculator\app\src\main\AndroidManifest.xml reason: use-sdk injection requested
MERGED from [com.android.support:cardview-v7:25.3.1] C:\Users\Lenovo\.android\build-cache\dff5d0015620c9c785604d30abf99ccf9135cdc9\output\AndroidManifest.xml:20:5-43
MERGED from [com.android.support:design:25.3.1] C:\Users\Lenovo\.android\build-cache\9f23a8f1aadb7ccfa2b82ce899c54e7c384effeb\output\AndroidManifest.xml:21:5-23:62
MERGED from [com.android.support:transition:25.3.1] C:\Users\Lenovo\.android\build-cache\610015489d47b47f1a7662e85a1f7da5f31695f5\output\AndroidManifest.xml:20:5-44
MERGED from [uk.co.chrisjenx:calligraphy:2.2.0] C:\Users\Lenovo\.android\build-cache\95417d68a1500e31878e5f16ca5a5c13bf17b679\output\AndroidManifest.xml:7:5-9:41
MERGED from [com.android.support:appcompat-v7:25.3.1] C:\Users\Lenovo\.android\build-cache\e806d1223d4f8a0138a0f9e43bbde76c47fe09ac\output\AndroidManifest.xml:21:5-23:78
MERGED from [com.android.support:support-v4:25.3.1] C:\Users\Lenovo\.android\build-cache\2c0cd96ab37b4c80e093bf29fca81a616884e11d\output\AndroidManifest.xml:21:5-23:54
MERGED from [com.android.support:support-fragment:25.3.1] C:\Users\Lenovo\.android\build-cache\ec0a1fd78d73990676392e9fbda943c1ffa7d628\output\AndroidManifest.xml:21:5-23:60
MERGED from [com.android.support:support-media-compat:25.3.1] C:\Users\Lenovo\.android\build-cache\57fcd885ae391f71327788d81ca9cd40ab161e30\output\AndroidManifest.xml:21:5-23:63
MERGED from [com.android.support:support-core-utils:25.3.1] C:\Users\Lenovo\.android\build-cache\267486a6ff10aa4c38fe89a587edc4aa8ebee08b\output\AndroidManifest.xml:21:5-23:61
MERGED from [com.android.support:animated-vector-drawable:25.3.1] C:\Users\Lenovo\.android\build-cache\8a623e6583a7943d7d5200dd887ca4f35df9b57c\output\AndroidManifest.xml:20:5-44
MERGED from [com.android.support:support-vector-drawable:25.3.1] C:\Users\Lenovo\.android\build-cache\b532181c00635f8abdbe28488944b260f121fd20\output\AndroidManifest.xml:20:5-43
MERGED from [com.amitshekhar.android:rx2-android-networking:1.0.0] C:\Users\Lenovo\.android\build-cache\9dff1ed50806a9793cad49e3345d96af8ce5e2bb\output\AndroidManifest.xml:25:5-27:41
MERGED from [com.amitshekhar.android:android-networking:1.0.0] C:\Users\Lenovo\.android\build-cache\440c07e2d060b354a91d7d0f0ae7ca6f2270b6c4\output\AndroidManifest.xml:23:5-25:41
MERGED from [io.reactivex.rxjava2:rxandroid:2.0.1] C:\Users\Lenovo\.android\build-cache\cbccb4069f9a09da7f97099db51c1a3c2c158d35\output\AndroidManifest.xml:19:5-43
MERGED from [com.jakewharton:butterknife:8.6.0] C:\Users\Lenovo\.android\build-cache\74a5aad76064f049384b9a81ffcd9a8f7cabc70f\output\AndroidManifest.xml:5:5-43
MERGED from [com.mindorks:placeholderview:0.6.1] C:\Users\Lenovo\.android\build-cache\81ee59bd172afce5ff88af20212c3422d48d99e5\output\AndroidManifest.xml:8:5-10:41
MERGED from [com.android.support:recyclerview-v7:25.3.1] C:\Users\Lenovo\.android\build-cache\017f575183b98ca404d78ae24b798bc981745077\output\AndroidManifest.xml:20:5-43
MERGED from [com.android.support:support-core-ui:25.3.1] C:\Users\Lenovo\.android\build-cache\72a16cfc92e51274ead5b8515f06347ccdf464a4\output\AndroidManifest.xml:21:5-23:58
MERGED from [com.android.support:support-compat:25.3.1] C:\Users\Lenovo\.android\build-cache\5543d7e868d7d10996d9bb1a4a5a4316f2b6384c\output\AndroidManifest.xml:21:5-23:58
MERGED from [com.jakewharton.timber:timber:4.5.1] C:\Users\Lenovo\.android\build-cache\7a5da45a70b6a2f499bcd861b767505f8f34e0c9\output\AndroidManifest.xml:6:5-43
	tools:overrideLibrary
		ADDED from [com.android.support:design:25.3.1] C:\Users\Lenovo\.android\build-cache\9f23a8f1aadb7ccfa2b82ce899c54e7c384effeb\output\AndroidManifest.xml:23:9-59
	android:targetSdkVersion
		INJECTED from D:\android example\Vat Calculator\vat-calculator\app\src\main\AndroidManifest.xml
		INJECTED from D:\android example\Vat Calculator\vat-calculator\app\src\main\AndroidManifest.xml
	android:minSdkVersion
		INJECTED from D:\android example\Vat Calculator\vat-calculator\app\src\main\AndroidManifest.xml
		INJECTED from D:\android example\Vat Calculator\vat-calculator\app\src\main\AndroidManifest.xml
meta-data#android.support.VERSION
ADDED from [com.android.support:cardview-v7:25.3.1] C:\Users\Lenovo\.android\build-cache\dff5d0015620c9c785604d30abf99ccf9135cdc9\output\AndroidManifest.xml:22:5-24:34
MERGED from [com.android.support:design:25.3.1] C:\Users\Lenovo\.android\build-cache\9f23a8f1aadb7ccfa2b82ce899c54e7c384effeb\output\AndroidManifest.xml:25:5-27:34
MERGED from [com.android.support:transition:25.3.1] C:\Users\Lenovo\.android\build-cache\610015489d47b47f1a7662e85a1f7da5f31695f5\output\AndroidManifest.xml:22:5-24:34
MERGED from [com.android.support:appcompat-v7:25.3.1] C:\Users\Lenovo\.android\build-cache\e806d1223d4f8a0138a0f9e43bbde76c47fe09ac\output\AndroidManifest.xml:25:5-27:34
MERGED from [com.android.support:support-v4:25.3.1] C:\Users\Lenovo\.android\build-cache\2c0cd96ab37b4c80e093bf29fca81a616884e11d\output\AndroidManifest.xml:25:5-27:34
MERGED from [com.android.support:support-fragment:25.3.1] C:\Users\Lenovo\.android\build-cache\ec0a1fd78d73990676392e9fbda943c1ffa7d628\output\AndroidManifest.xml:25:5-27:34
MERGED from [com.android.support:support-media-compat:25.3.1] C:\Users\Lenovo\.android\build-cache\57fcd885ae391f71327788d81ca9cd40ab161e30\output\AndroidManifest.xml:25:5-27:34
MERGED from [com.android.support:support-core-utils:25.3.1] C:\Users\Lenovo\.android\build-cache\267486a6ff10aa4c38fe89a587edc4aa8ebee08b\output\AndroidManifest.xml:25:5-27:34
MERGED from [com.android.support:animated-vector-drawable:25.3.1] C:\Users\Lenovo\.android\build-cache\8a623e6583a7943d7d5200dd887ca4f35df9b57c\output\AndroidManifest.xml:22:5-24:34
MERGED from [com.android.support:support-vector-drawable:25.3.1] C:\Users\Lenovo\.android\build-cache\b532181c00635f8abdbe28488944b260f121fd20\output\AndroidManifest.xml:22:5-24:34
MERGED from [com.android.support:recyclerview-v7:25.3.1] C:\Users\Lenovo\.android\build-cache\017f575183b98ca404d78ae24b798bc981745077\output\AndroidManifest.xml:22:5-24:34
MERGED from [com.android.support:support-core-ui:25.3.1] C:\Users\Lenovo\.android\build-cache\72a16cfc92e51274ead5b8515f06347ccdf464a4\output\AndroidManifest.xml:25:5-27:34
MERGED from [com.android.support:support-compat:25.3.1] C:\Users\Lenovo\.android\build-cache\5543d7e868d7d10996d9bb1a4a5a4316f2b6384c\output\AndroidManifest.xml:25:5-27:34
	android:value
		ADDED from [com.android.support:cardview-v7:25.3.1] C:\Users\Lenovo\.android\build-cache\dff5d0015620c9c785604d30abf99ccf9135cdc9\output\AndroidManifest.xml:24:9-31
	android:name
		ADDED from [com.android.support:cardview-v7:25.3.1] C:\Users\Lenovo\.android\build-cache\dff5d0015620c9c785604d30abf99ccf9135cdc9\output\AndroidManifest.xml:23:9-47
